{"page":0,"per_page":10,"total":25,"total_pages":3,"data":[{"competition":"UEFA Champions League","year":2011,"round":"GroupE","team1":"Valencia CF","team2":"Chelsea","team1goals":"1","team2goals":"1"},{"competition":"UEFA Champions League","year":2011,"round":"GroupE","team1":"KRC Genk","team2":"Chelsea","team1goals":"1","team2goals":"1"},{"competition":"UEFA Champions League","year":2011,"round":"GroupE","team1":"Bayer Leverkusen","team2":"Chelsea","team1goals":"2","team2goals":"1"},{"competition":"UEFA Champions League","year":2011,"round":"R16","team1":"SSC Napoli","team2":"Chelsea","team1goals":"3","team2goals":"1"},{"competition":"UEFA Champions League","year":2011,"round":"QF","team1":"SL Benfica","team2":"Chelsea","team1goals":"0","team2goals":"1"},{"competition":"UEFA Champions League","year":2011,"round":"SF","team1":"Barcelona","team2":"Chelsea","team1goals":"2","team2goals":"2"},{"competition":"English Premier League","year":2011,"round":"","team1":"Arsenal","team2":"Chelsea","team1goals":"0","team2goals":"0"},{"competition":"English Premier League","year":2011,"round":"","team1":"Aston Villa","team2":"Chelsea","team1goals":"2","team2goals":"4"},{"competition":"English Premier League","year":2011,"round":"","team1":"Blackburn Rovers","team2":"Chelsea","team1goals":"0","team2goals":"1"},{"competition":"English Premier League","year":2011,"round":"","team1":"Bolton Wanderers","team2":"Chelsea","team1goals":"1","team2goals":"5"}]}